{
	"homepage": "https://github.com/MichaelHillcox/XRay-Mod",
	"1.12.2": {
		"1.12.2-r1.4.0": "See https://github.com/MichaelHillcox/XRay-Mod/releases/tag/1.12.2-v1.4.0",
		"1.12.2-r1.3.4": "See https://github.com/MichaelHillcox/XRay-Mod/releases/tag/1.12.2-v1.3.4"
	},
	"1.12.1": {
		"1.12.1-r1.3.4": "See https://github.com/MichaelHillcox/XRay-Mod/releases/tag/1.12.1-v1.3.4"
	},
	"1.12": {
		"1.12-r1.3.3": "See https://github.com/MichaelHillcox/XRay-Mod/releases/tag/1.12-v1.3.3",
		"1.12-r1.3.2": "See https://github.com/MichaelHillcox/XRay-Mod/releases/tag/1.12-v1.3.2",
		"1.12-r1.3.1": "See https://github.com/MichaelHillcox/XRay-Mod/releases/tag/1.12-v1.3.1",
		"1.12-r1.3.0": "See https://github.com/MichaelHillcox/XRay-Mod/releases/tag/1.12-v1.3.0",
		"1.12-r1.2.1": "See https://github.com/MichaelHillcox/XRay-Mod/releases/tag/1.12-v1.2.1",
		"1.12-r1.2.0": "See https://github.com/MichaelHillcox/XRay-Mod/releases/tag/1.12-v1.2.0"
	},
	"1.11.2": {
		"1.11.2-r1.3.3": "See https://github.com/MichaelHillcox/XRay-Mod/releases/tag/1.11.2-v1.3.3",
		"1.11.2-r1.3.2": "See https://github.com/MichaelHillcox/XRay-Mod/releases/tag/1.11.2-v1.3.2",
		"1.11.2-r1.3.1": "See https://github.com/MichaelHillcox/XRay-Mod/releases/tag/1.11.2-v1.3.1",
		"1.11.2-r1.3.0": "See https://github.com/MichaelHillcox/XRay-Mod/releases/tag/1.11.2-v1.3.0",
		"1.11.2-r1.1.0": "See https://github.com/MichaelHillcox/XRay-Mod/releases/tag/1.11.2-v1.1.0"
	},
	"1.10.2": {
		"1.10.2-r1.3.1": "See https://github.com/MichaelHillcox/XRay-Mod/releases/tag/1.10.2-v1.3.1",
		"1.10.2-r1.3.0": "See https://github.com/MichaelHillcox/XRay-Mod/releases/tag/1.10.2-v1.3.0",
		"1.10.2-r1.2.1": "See https://github.com/MichaelHillcox/XRay-Mod/releases/tag/1.10.2-v1.2.1",
		"1.10.2-r1.1.0.1": "See https://github.com/MichaelHillcox/XRay-Mod/releases/tag/1.10.2-v1.1.0.1",
		"1.10.2-r1.1.0": "See https://github.com/MichaelHillcox/XRay-Mod/releases/tag/1.10.2-v1.1.0"
	},
	"1.9.4": {
		"r1.0.9": "See https://github.com/MichaelHillcox/XRay-Mod/releases/tag/1.0.9"
	},
	"1.8.9": {
		"1.8.9-r1.1.0": "See https://github.com/MichaelHillcox/XRay-Mod/releases/tag/1.8.9-v1.1.0"
	},
	"1.7.10": {
		"r1.0.8": "See https://github.com/MichaelHillcox/XRay-Mod/releases/tag/1.0.8",
		"r1.0.7": "See https://github.com/MichaelHillcox/XRay-Mod/releases/tag/1.0.1.75"
	},
	"promos": {
		"1.12.2-latest": "1.12.2-r1.4.0",
		"1.12.2-recommended": "1.12.2-r1.4.0",
		"1.12.1-latest": "1.12.1-r1.3.4",
		"1.12.1-recommended": "1.12.1-r1.3.4",
		"1.12-latest": "1.12-r1.3.3",
		"1.12-recommended": "1.12-r1.3.3",
		"1.11.2-latest": "1.11.2-r1.3.3",
		"1.11.2-recommended": "1.11.2-r1.3.3",
		"1.10.2-latest": "1.10.2-r1.3.1",
		"1.10.2-recommended": "1.10.2-r1.3.1",
		"1.9.4-latest": "r1.0.9",
		"1.9.4-recommended": "r1.0.9",
		"1.8.9-latest": "1.8.9-r1.1.0",
		"1.8.9-recommended": "1.8.9-r1.1.0",
		"1.7.10-latest": "r1.0.8",
		"1.7.10-recommended": "r1.0.8"
	}
}
